width_delay_beam_experiment/data_26-10-2015/inu_delay_1590_width_49.9.csv

"Record Length",50000,"Points",-7.2031998e-005, -0.01062501
"Sample Interval",7.99999977e-009,s,-7.2023998e-005, 0.006640619
"Trigger Point",9004,"Samples",-7.2015998e-005,  0.02101562
"Trigger Time",           0,s,-7.2007998e-005,  0.02656249
"",,,-7.1999998e-005,  0.02242187
"Horizontial Offset",-7.2031998e-005,s,-7.1991998e-005, 0.004843744
,,,-7.1983998e-005, -0.02007813
,,,-7.1975998e-005, -0.03804688
,,,-7.1967998e-005,   -0.049375
,,,-7.1959998e-005, -0.04546875
,,,-7.1951998e-005, -0.02867188
,,,-7.1943998e-005,-0.009531255
,,,-7.1935998e-005, 0.008828119
,,,-7.1927998e-005,  0.01664062
,,,-7.1919998e-005,  0.01148437
,,,-7.1911998e-005,-0.006562505
,,,-7.1903998e-005, -0.02695313
,,,-7.1895998e-005, -0.04171875
,,,-7.1887998e-005, -0.04765625
,,,-7.1879998e-005,  -0.0378125
,,,-7.1871998e-005, -0.01851563
,,,-7.1863998e-005,-0.0007812556
,,,-7.1855998e-005,  0.01851562
,,,-7.1847998e-005,  0.02257812
,,,-7.1839998e-005,  0.01507812
,,,-7.1831998e-005,-0.001406256
,,,-7.1823998e-005, -0.02156251
,,,-7.1815998e-005, -0.03734375
,,,-7.1807998e-005,    -0.04375
,,,-7.1799998e-005, -0.03554688
,,,-7.1791998e-005, -0.02281251
,,,-7.1783998e-005,-0.007500005
,,,-7.1775998e-005, 0.005546869
,,,-7.1767998e-005, 0.008124994
,,,-7.1759998e-005,-0.002187506
,,,-7.1751998e-005, -0.01804688
,,,-7.1743998e-005, -0.03507813
,,,-7.1735998e-005, -0.04703125
,,,-7.1727998e-005, -0.05117188
,,,-7.1719998e-005, -0.03757813
,,,-7.1711998e-005, -0.02109376
,,,-7.1703998e-005, 0.001015619
,,,-7.1695998e-005,  0.01476562
,,,-7.1687998e-005,  0.01656249
,,,-7.1679998e-005,  0.01007812
,,,-7.1671998e-005,-0.006875005
,,,-7.1663998e-005, -0.02460938
,,,-7.1655998e-005,   -0.035625
,,,-7.1647998e-005, -0.03726563
,,,-7.1639998e-005,  -0.0278125
,,,-7.1631998e-005, -0.01445313
,,,-7.1623998e-005, 0.003281244
,,,-7.1615998e-005,  0.01242187
,,,-7.1607998e-005,  0.01367187
,,,-7.1599998e-005, 0.008124994
,,,-7.1591998e-005, -0.00742188
,,,-7.1583998e-005, -0.01515626
,,,-7.1575998e-005, -0.01984376
,,,-7.1567998e-005, -0.02093751
,,,-7.1559998e-005, -0.00804688
,,,-7.1551998e-005, 0.005234369
,,,-7.1543998e-005,  0.01468749
,,,-7.1535998e-005,  0.02476562
,,,-7.1527998e-005,  0.02726562
,,,-7.1519998e-005,  0.01656249
,,,-7.1511998e-005, 0.004374994
,,,-7.1503998e-005, -0.00867188
,,,-7.1495998e-005, -0.01953126
,,,-7.1487998e-005, -0.02398438
,,,-7.1479998e-005, -0.01968751
,,,-7.1471998e-005, -0.01218751
,,,-7.1463998e-005,-0.0004687556
,,,-7.1455998e-005,  0.01124999
,,,-7.1447998e-005,  0.01539062
,,,-7.1439998e-005,  0.01195312
,,,-7.1431998e-005, 0.002265619
,,,-7.1423998e-005, -0.00945313
,,,-7.1415998e-005, -0.02226563
,,,-7.1407998e-005,     -0.0275
,,,-7.1399998e-005, -0.02335938
,,,-7.1391998e-005, -0.01406251
,,,-7.1383998e-005, 0.006718744
,,,-7.1375998e-005,  0.02039062
,,,-7.1367998e-005,  0.02734374
,,,-7.1359998e-005,  0.02257812
,,,-7.1351998e-005, 0.004531244
,,,-7.1343998e-005, -0.01796876
,,,-7.1335998e-005, -0.03867188
,,,-7.1327998e-005, -0.04828125
,,,-7.1319998e-005, -0.04609375
,,,-7.1311998e-005, -0.03171875
,,,-7.1303998e-005,-0.009531255
,,,-7.1295998e-005, 0.008203119
,,,-7.1287998e-005,  0.01640624
,,,-7.1279998e-005,  0.01273437
,,,-7.1271998e-005,-0.005468755
,,,-7.1263998e-005,  -0.0265625
,,,-7.1255998e-005,   -0.041875
,,,-7.1247998e-005, -0.04734375
,,,-7.1239998e-005, -0.03914063
,,,-7.1231998e-005, -0.02023438
,,,-7.1223998e-005,-0.0004687556
,,,-7.1215998e-005,  0.01562499
,,,-7.1207998e-005,  0.02421874
,,,-7.1199998e-005,  0.01632812
,,,-7.1191998e-005,-0.003281256
,,,-7.1183998e-005, -0.02335938
,,,-7.1175998e-005, -0.03617188
,,,-7.1167998e-005, -0.04453125
,,,-7.1159998e-005, -0.03796875
,,,-7.1151998e-005, -0.02382813
,,,-7.1143998e-005, -0.00789063
,,,-7.1135998e-005, 0.003984369
,,,-7.1127998e-005, 0.007578119
,,,-7.1119998e-005,-0.001093756
,,,-7.1111998e-005, -0.01703126
,,,-7.1103998e-005, -0.03382813
,,,-7.1095998e-005, -0.04726563
,,,-7.1087998e-005, -0.05171875
,,,-7.1079998e-005,    -0.04125
,,,-7.1071998e-005, -0.02257813
,,,-7.1063998e-005,-0.002109381
,,,-7.1055998e-005,  0.01218749
,,,-7.1047998e-005,  0.01828124
,,,-7.1039998e-005, 0.009843744
,,,-7.1031998e-005,-0.007343755
,,,-7.1023998e-005, -0.02265626
,,,-7.1015998e-005, -0.03484375
,,,-7.1007998e-005, -0.03695313
,,,-7.0999998e-005, -0.02953125
,,,-7.0991998e-005, -0.01750001
,,,-7.0983998e-005,0.0007812444
,,,-7.0975998e-005,  0.01148437
,,,-7.0967998e-005,  0.01453124
,,,-7.0959998e-005, 0.008359369
,,,-7.0951998e-005,-0.002812506
,,,-7.0943998e-005, -0.01539063
,,,-7.0935998e-005, -0.02203126
,,,-7.0927998e-005, -0.01984376
,,,-7.0919998e-005, -0.01078126
,,,-7.0911998e-005, 0.002656244
,,,-7.0903998e-005,  0.01570312
,,,-7.0895998e-005,  0.02539062
,,,-7.0887998e-005,  0.02515624
,,,-7.0879998e-005,  0.01874999
,,,-7.0871998e-005, 0.006171869
,,,-7.0863998e-005,-0.007031255
,,,-7.0855998e-005, -0.01820313
,,,-7.0847998e-005, -0.02382813
,,,-7.0839998e-005, -0.02179688
,,,-7.0831998e-005, -0.01414063
,,,-7.0823998e-005,-0.003593756
,,,-7.0815998e-005, 0.008749994
,,,-7.0807998e-005,  0.01515624
,,,-7.0799998e-005,  0.01351562
,,,-7.0791998e-005, 0.004843744
,,,-7.0783998e-005, -0.00835938
,,,-7.0775998e-005, -0.02156251
,,,-7.0767998e-005, -0.02617188
,,,-7.0759998e-005, -0.02523438
,,,-7.0751998e-005, -0.01421876
,,,-7.0743998e-005, 0.003437494
,,,-7.0735998e-005,  0.01757812
,,,-7.0727998e-005,  0.02539062
,,,-7.0719998e-005,  0.02265624
,,,-7.0711998e-005, 0.006874994
,,,-7.0703998e-005, -0.01851563
,,,-7.0695998e-005, -0.03726563
,,,-7.0687998e-005, -0.04992188
,,,-7.0679998e-005,  -0.0471875
,,,-7.0671998e-005, -0.03304688
,,,-7.0663998e-005, -0.01335938
,,,-7.0655998e-005, 0.008359369
,,,-7.0647998e-005,  0.01679687
,,,-7.0639998e-005,  0.01312499
,,,-7.0631998e-005, -0.00414063
,,,-7.0623998e-005, -0.02578126
,,,-7.0615998e-005, -0.04171875
,,,-7.0607998e-005, -0.04929688
,,,-7.0599998e-005, -0.04171875
,,,-7.0591998e-005, -0.02453126
,,,-7.0583998e-005,-0.001796881
,,,-7.0575998e-005,  0.01664062
,,,-7.0567998e-005,  0.02304687
,,,-7.0559998e-005,  0.01703124
,,,-7.0551998e-005,-0.0003125056
,,,-7.0543998e-005, -0.01984376
,,,-7.0535998e-005,  -0.0359375
,,,-7.0527998e-005, -0.04265625
,,,-7.0519998e-005,    -0.03875
,,,-7.0511998e-005, -0.02710938
,,,-7.0503998e-005,-0.008750005
,,,-7.0495998e-005, 0.001484369
,,,-7.0487998e-005, 0.006718744
,,,-7.0479998e-005,-0.001250006
,,,-7.0471998e-005, -0.01492188
,,,-7.0463998e-005, -0.03382813
,,,-7.0455998e-005, -0.04445313
,,,-7.0447998e-005, -0.05070313
,,,-7.0439998e-005,     -0.0425
,,,-7.0431998e-005, -0.02460938
,,,-7.0423998e-005,-0.004375005
,,,-7.0415998e-005,  0.01164062
,,,-7.0407998e-005,  0.01687499
,,,-7.0399998e-005,  0.01249999
,,,-7.0391998e-005,-0.005312505
,,,-7.0383998e-005, -0.02187501
,,,-7.0375998e-005, -0.03304688
,,,-7.0367998e-005,  -0.0384375
,,,-7.0359998e-005, -0.03203125
,,,-7.0351998e-005, -0.01750001
,,,-7.0343998e-005,-0.001328131
,,,-7.0335998e-005,  0.01054687
,,,-7.0327998e-005,  0.01476562
,,,-7.0319998e-005, 0.008749994
,,,-7.0311998e-005,-0.004062505
,,,-7.0303998e-005, -0.01468751
,,,-7.0295998e-005, -0.02257813
,,,-7.0287998e-005, -0.01992188
,,,-7.0279998e-005, -0.01179688
,,,-7.0271998e-005, 0.001640619
,,,-7.0263998e-005,  0.01265624
,,,-7.0255998e-005,  0.02187499
,,,-7.0247998e-005,  0.02445312
,,,-7.0239998e-005,  0.01945312
,,,-7.0231998e-005, 0.007421869
,,,-7.0223998e-005, -0.00601563
,,,-7.0215998e-005, -0.01929688
,,,-7.0207998e-005, -0.02281251
,,,-7.0199998e-005, -0.02156251
,,,-7.0191998e-005, -0.01585938
,,,-7.0183998e-005, -0.00507813
,,,-7.0175998e-005, 0.007812494
,,,-7.0167998e-005,  0.01257812
,,,-7.0159998e-005,  0.01132812
,,,-7.0151998e-005, 0.004765619
,,,-7.0143998e-005,-0.009375005
,,,-7.0135998e-005, -0.02187501
,,,-7.0127998e-005, -0.02734375
,,,-7.0119998e-005, -0.02617188
,,,-7.0111998e-005, -0.01554688
,,,-7.0103998e-005, 0.001953119
,,,-7.0095998e-005,  0.01664062
,,,-7.0087998e-005,  0.02492187
,,,-7.0079998e-005,  0.02101562
,,,-7.0071998e-005, 0.009374994
,,,-7.0063998e-005, -0.01578126
,,,-7.0055998e-005,  -0.0346875
,,,-7.0047998e-005, -0.04914063
,,,-7.0039998e-005, -0.04632813
,,,-7.0031998e-005,  -0.0346875
,,,-7.0023998e-005, -0.01562501
,,,-7.0015998e-005, 0.005937494
,,,-7.0007998e-005,  0.01593749
,,,-6.9999998e-005,  0.01226562
,,,-6.9991998e-005,-0.004218755
,,,-6.9983998e-005, -0.02398438
,,,-6.9975998e-005, -0.04023438
,,,-6.9967998e-005, -0.04953125
,,,-6.9959998e-005, -0.04445313
,,,-6.9951998e-005, -0.02601563
,,,-6.9943998e-005,-0.006875005
,,,-6.9935998e-005,  0.01414062
,,,-6.9927998e-005,  0.02070312
,,,-6.9919998e-005,  0.01578124
,,,-6.9911998e-005,-0.0007031306
,,,-6.9903998e-005, -0.02015626
,,,-6.9895998e-005, -0.03578125
,,,-6.9887998e-005,  -0.0440625
,,,-6.9879998e-005, -0.04171875
,,,-6.9871998e-005,  -0.0265625
,,,-6.9863998e-005, -0.01062501
,,,-6.9855998e-005,0.0005468694
,,,-6.9847998e-005, 0.006640619
,,,-6.9839998e-005,0.0006249944
,,,-6.9831998e-005, -0.01570313
,,,-6.9823998e-005, -0.03226563
,,,-6.9815998e-005, -0.04914063
,,,-6.9807998e-005, -0.05476563
,,,-6.9799998e-005, -0.04523438
,,,-6.9791998e-005, -0.02679688
,,,-6.9783998e-005,-0.006406255
,,,-6.9775998e-005, 0.009609369
,,,-6.9767998e-005,  0.01859374
,,,-6.9759998e-005,  0.01070312
,,,-6.9751998e-005,-0.004218755
,,,-6.9743998e-005, -0.02242188
,,,-6.9735998e-005, -0.03492188
,,,-6.9727998e-005, -0.03929688
,,,-6.9719998e-005, -0.03109375
,,,-6.9711998e-005, -0.01804688
,,,-6.9703998e-005,-0.001796881
,,,-6.9695998e-005,  0.01093749
,,,-6.9687998e-005,  0.01445312
,,,-6.9679998e-005, 0.009374994
,,,-6.9671998e-005,-0.002421881
,,,-6.9663998e-005, -0.01601563
,,,-6.9655998e-005, -0.02062501
,,,-6.9647998e-005, -0.02195313
,,,-6.9639998e-005, -0.01343751
,,,-6.9631998e-005,0.0003906194
,,,-6.9623998e-005,  0.01218749
,,,-6.9615998e-005,  0.02414062
,,,-6.9607998e-005,  0.02359374
,,,-6.9599998e-005,  0.02078124
,,,-6.9591998e-005, 0.006874994
,,,-6.9583998e-005, -0.00601563
,,,-6.9575998e-005, -0.01773438
,,,-6.9567998e-005, -0.02476563
,,,-6.9559998e-005, -0.02226563
,,,-6.9551998e-005, -0.01632813
,,,-6.9543998e-005, -0.00414063
,,,-6.9535998e-005, 0.005156244
,,,-6.9527998e-005,  0.01249999
,,,-6.9519998e-005,  0.01179687
,,,-6.9511998e-005, 0.003124994
,,,-6.9503998e-005, -0.00851563
,,,-6.9495998e-005, -0.01960938
,,,-6.9487998e-005, -0.02820313
,,,-6.9479998e-005, -0.02734375
,,,-6.9471998e-005, -0.01625001
,,,-6.9463998e-005,-0.001484381
,,,-6.9455998e-005,  0.01484374
,,,-6.9447998e-005,  0.02640624
,,,-6.9439998e-005,  0.02249999
,,,-6.9431998e-005, 0.006562494
,,,-6.9423998e-005, -0.01515626
,,,-6.9415998e-005, -0.03382813
,,,-6.9407998e-005, -0.05007813
,,,-6.9399998e-005, -0.05132813
,,,-6.9391998e-005, -0.03679688
,,,-6.9383998e-005, -0.01546876
,,,-6.9375998e-005, 0.002109369
,,,-6.9367998e-005,  0.01429687
,,,-6.9359998e-005,  0.01265624
,,,-6.9351998e-005,-0.002890631
,,,-6.9343998e-005, -0.02257813
,,,-6.9335998e-005, -0.03828125
,,,-6.9327998e-005, -0.05203125
,,,-6.9319998e-005, -0.04460938
,,,-6.9311998e-005, -0.02773438
,,,-6.9303998e-005,-0.009218755
,,,-6.9295998e-005,  0.01164062
,,,-6.9287998e-005,  0.02031249
,,,-6.9279998e-005,  0.01570312
,,,-6.9271998e-005, 0.001953119
,,,-6.9263998e-005, -0.01781251
,,,-6.9255998e-005, -0.03578125
,,,-6.9247998e-005, -0.04515625
,,,-6.9239998e-005,   -0.041875
,,,-6.9231998e-005, -0.02796875
,,,-6.9223998e-005, -0.01429688
,,,-6.9215998e-005,0.0007812444
,,,-6.9207998e-005, 0.007187494
,,,-6.9199998e-005,0.0002343694
,,,-6.9191998e-005, -0.01398438
,,,-6.9183998e-005, -0.03070313
,,,-6.9175998e-005, -0.04828125
,,,-6.9167998e-005,   -0.053125
,,,-6.9159998e-005, -0.04734375
,,,-6.9151998e-005, -0.03078125
,,,-6.9143998e-005, -0.00773438
,,,-6.9135998e-005, 0.008906244
,,,-6.9127998e-005,  0.01640624
,,,-6.9119998e-005,  0.01234374
,,,-6.9111998e-005,-0.002343756
,,,-6.9103998e-005, -0.01929688
,,,-6.9095998e-005,      -0.035
,,,-6.9087998e-005, -0.03960938
,,,-6.9079998e-005, -0.03484375
,,,-6.9071998e-005, -0.01945313
,,,-6.9063998e-005, -0.00429688
,,,-6.9055998e-005,  0.01031249
,,,-6.9047998e-005,  0.01460937
,,,-6.9039998e-005,  0.01140624
,,,-6.9031998e-005,-0.002031256
,,,-6.9023998e-005, -0.01617188
,,,-6.9015998e-005, -0.02062501
,,,-6.9007998e-005, -0.02296876
,,,-6.8999998e-005, -0.01789063
,,,-6.8991998e-005,-0.002500006
,,,-6.8983998e-005,  0.01156249
,,,-6.8975998e-005,  0.02148437
,,,-6.8967998e-005,  0.02507812
,,,-6.8959998e-005,  0.02054687
,,,-6.8951998e-005, 0.008203119
,,,-6.89439981e-005,-0.006562505
,,,-6.89359981e-005, -0.01679688
,,,-6.89279981e-005, -0.02554688
,,,-6.89199981e-005, -0.02476563
,,,-6.89119981e-005, -0.01664063
,,,-6.89039981e-005, -0.00789063
,,,-6.88959981e-005, 0.003281244
,,,-6.88879981e-005,  0.01187499
,,,-6.88799981e-005,  0.01445312
,,,-6.88719981e-005, 0.004140619
,,,-6.88639981e-005,-0.008281255
,,,-6.88559981e-005, -0.02148438
,,,-6.88479981e-005, -0.03054688
,,,-6.88399981e-005, -0.02765625
,,,-6.88319981e-005, -0.02007813
,,,-6.88239981e-005,-0.004687505
,,,-6.88159981e-005,  0.01156249
,,,-6.88079981e-005,  0.02328124
,,,-6.87999981e-005,  0.02421874
,,,-6.87919981e-005,  0.01015624
,,,-6.87839981e-005, -0.00960938
,,,-6.87759981e-005, -0.03414063
,,,-6.87679981e-005,   -0.046875
,,,-6.87599981e-005,       -0.05
,,,-6.87519981e-005, -0.03804688
,,,-6.87439981e-005, -0.01875001
,,,-6.87359981e-005,0.0009374944
,,,-6.87279981e-005,  0.01343749
,,,-6.87199981e-005,  0.01265624
,,,-6.87119981e-005,-5.587935e-009
,,,-6.87039981e-005, -0.02281251
,,,-6.86959981e-005,  -0.0403125
,,,-6.86879981e-005,  -0.0503125
,,,-6.86799981e-005, -0.04601563
,,,-6.86719981e-005, -0.03140625
,,,-6.86639981e-005, -0.00835938
,,,-6.86559981e-005, 0.009296869
,,,-6.86479981e-005,  0.01890624
,,,-6.86399981e-005,  0.01562499
,,,-6.86319981e-005, 0.002890619
,,,-6.86239981e-005, -0.01890626
,,,-6.86159981e-005, -0.03335938
,,,-6.86079981e-005,   -0.045625
,,,-6.85999981e-005, -0.04632813
,,,-6.85919981e-005, -0.03140625
,,,-6.85839981e-005, -0.01671876
,,,-6.85759981e-005,-0.0008593806
,,,-6.85679981e-005, 0.004453119
,,,-6.85599981e-005,-0.0009375056
,,,-6.85519981e-005, -0.01578126
,,,-6.85439981e-005, -0.03195313
,,,-6.85359981e-005, -0.04507813
,,,-6.85279981e-005, -0.05484375
,,,-6.85199981e-005, -0.04828125
,,,-6.85119981e-005, -0.03171875
,,,-6.85039981e-005, -0.01335938
,,,-6.84959981e-005, 0.008281244
,,,-6.84879981e-005,  0.01656249
,,,-6.84799981e-005,  0.01234374
,,,-6.84719981e-005,-0.002968756
,,,-6.84639981e-005, -0.02109376
,,,-6.84559981e-005, -0.03390625
,,,-6.84479981e-005,  -0.0415625
,,,-6.84399981e-005,  -0.0340625
,,,-6.84319981e-005, -0.02234376
,,,-6.84239981e-005,-0.006562505
,,,-6.84159981e-005, 0.007890619
,,,-6.84079981e-005,  0.01203124
,,,-6.83999981e-005, 0.009218744
,,,-6.83919981e-005,-0.003515631
,,,-6.83839981e-005, -0.01382813
,,,-6.83759981e-005, -0.02046876
,,,-6.83679981e-005, -0.02398438
,,,-6.83599981e-005, -0.01742188
,,,-6.83519981e-005,-0.003281256
,,,-6.83439981e-005, 0.009765619
,,,-6.83359981e-005,  0.02070312
,,,-6.83279981e-005,  0.02414062
,,,-6.83199981e-005,  0.01914062
,,,-6.83119981e-005, 0.009531244
,,,-6.83039981e-005, -0.00617188
,,,-6.82959981e-005, -0.01984376
,,,-6.82879981e-005, -0.02539063
,,,-6.82799981e-005, -0.02429688
,,,-6.82719981e-005, -0.01906251
,,,-6.82639981e-005, -0.01031251
,,,-6.82559981e-005, 0.003984369
,,,-6.82479981e-005,  0.01085937
,,,-6.82399981e-005,  0.01156249
,,,-6.82319981e-005, 0.007031244
,,,-6.82239981e-005,-0.007812505
,,,-6.82159981e-005, -0.01976563
,,,-6.82079981e-005, -0.02742188
,,,-6.81999981e-005,  -0.0284375
,,,-6.81919981e-005, -0.02171876
,,,-6.81839981e-005, -0.00476563
,,,-6.81759981e-005,  0.01242187
,,,-6.81679981e-005,  0.02242187
,,,-6.81599981e-005,  0.02257812
,,,-6.81519981e-005,  0.01054687
,,,-6.81439981e-005, -0.01148438
,,,-6.81359981e-005, -0.03484375
,,,-6.81279981e-005, -0.04773438
,,,-6.81199981e-005, -0.04882813
,,,-6.81119981e-005, -0.03992188
,,,-6.81039981e-005, -0.01968751
,,,-6.80959981e-005,0.0003124944
,,,-6.80879981e-005, 0.009687494
,,,-6.80799981e-005, 0.009453119
,,,-6.80719981e-005,-0.002031256
,,,-6.80639981e-005, -0.02242188
,,,-6.80559981e-005, -0.03960938
,,,-6.80479981e-005, -0.05195313
,,,-6.80399981e-005, -0.04867188
,,,-6.80319981e-005, -0.03164063
,,,-6.80239981e-005, -0.01171876
,,,-6.80159981e-005, 0.007421869
,,,-6.80079981e-005,  0.01578124
,,,-6.79999981e-005,  0.01734374
,,,-6.79919981e-005,0.0007812444
,,,-6.79839981e-005, -0.01765626
,,,-6.79759981e-005, -0.03195313
,,,-6.79679981e-005, -0.04601563
,,,-6.79599981e-005, -0.04703125
,,,-6.79519981e-005, -0.03445313
,,,-6.79439981e-005, -0.01843751
,,,-6.79359981e-005, -0.00492188
,,,-6.79279981e-005, 0.004531244
,,,-6.79199981e-005,0.0001562444
,,,-6.79119981e-005, -0.01375001
,,,-6.79039981e-005, -0.03085938
,,,-6.78959981e-005, -0.04703125
,,,-6.78879981e-005, -0.05679688
,,,-6.78799981e-005, -0.04921875
,,,-6.78719981e-005,    -0.03375
,,,-6.78639981e-005, -0.01320313
,,,-6.78559981e-005, 0.005624994
,,,-6.78479981e-005,  0.01687499
,,,-6.78399981e-005,  0.01007812
,,,-6.78319981e-005,-0.001640631
,,,-6.78239981e-005, -0.01968751
,,,-6.78159981e-005, -0.03226563
,,,-6.78079981e-005,    -0.04125
,,,-6.77999981e-005,      -0.035
,,,-6.77919981e-005, -0.02500001
,,,-6.77839981e-005, -0.00960938
,,,-6.77759981e-005, 0.007265619
,,,-6.77679981e-005, 0.009999994
,,,-6.77599981e-005, 0.008671869
,,,-6.77519981e-005,0.0003906194
,,,-6.77439981e-005, -0.01656251
,,,-6.77359981e-005, -0.02265626
,,,-6.77279981e-005, -0.02359376
,,,-6.77199981e-005, -0.01851563
,,,-6.77119981e-005, -0.00664063
,,,-6.77039981e-005, 0.009218744
,,,-6.76959981e-005,  0.01859374
,,,-6.76879981e-005,  0.02281249
,,,-6.76799981e-005,  0.01999999
,,,-6.76719981e-005, 0.008984369
,,,-6.76639981e-005,-0.006250005
,,,-6.76559981e-005, -0.01835938
,,,-6.76479981e-005, -0.02507813
,,,-6.76399981e-005, -0.02570313
,,,-6.76319981e-005, -0.02000001
,,,-6.76239981e-005, -0.01023438
,,,-6.76159981e-005, 0.003203119
,,,-6.76079981e-005,  0.01031249
,,,-6.75999981e-005,  0.01156249
,,,-6.75919981e-005, 0.005546869
,,,-6.75839981e-005, -0.00820313
,,,-6.75759981e-005, -0.02226563
,,,-6.75679981e-005, -0.02929688
,,,-6.75599981e-005, -0.03078125
,,,-6.75519981e-005, -0.02148438
,,,-6.75439981e-005,-0.007500005
,,,-6.75359981e-005,  0.01101562
,,,-6.75279981e-005,  0.01937499
,,,-6.75199981e-005,  0.02046874
,,,-6.75119981e-005, 0.009531244
,,,-6.75039981e-005, -0.01039063
,,,-6.74959981e-005,     -0.0325
,,,-6.74879981e-005, -0.04984375
,,,-6.74799981e-005, -0.05460938
,,,-6.74719981e-005, -0.04234375
,,,-6.74639981e-005, -0.02335938
,,,-6.74559981e-005,-0.003046881
,,,-6.74479981e-005, 0.009374994
,,,-6.74399981e-005,  0.01124999
,,,-6.74319981e-005,-0.004375005
,,,-6.74239981e-005, -0.02210938
,,,-6.74159981e-005, -0.03929688
,,,-6.74079981e-005,  -0.0521875
,,,-6.73999981e-005,   -0.051875
,,,-6.73919981e-005, -0.03585938
,,,-6.73839981e-005, -0.01664063
,,,-6.73759981e-005, 0.002968744
,,,-6.73679981e-005,  0.01687499
,,,-6.73599981e-005,  0.01468749
,,,-6.73519981e-005, 0.002343744
,,,-6.73439981e-005, -0.01601563
,,,-6.73359981e-005, -0.03679688
,,,-6.73279981e-005, -0.04734375
,,,-6.73199981e-005, -0.04632813
,,,-6.73119981e-005, -0.03570313
,,,-6.73039981e-005, -0.02031251
,,,-6.72959981e-005,-0.003828131
,,,-6.72879981e-005, 0.001718744
,,,-6.72799981e-005,7.811941e-005
,,,-6.72719981e-005, -0.01367188
,,,-6.72639981e-005,  -0.0309375
,,,-6.72559981e-005, -0.04890625
,,,-6.72479981e-005,  -0.0578125
,,,-6.72399981e-005, -0.05203125
,,,-6.72319981e-005, -0.03773438
,,,-6.72239981e-005, -0.01742188
,,,-6.72159981e-005, 0.003203119
,,,-6.72079981e-005,  0.01304687
,,,-6.71999981e-005,  0.01046874
,,,-6.71919981e-005,-0.001718756
,,,-6.71839981e-005, -0.01992188
,,,-6.71759981e-005,  -0.0346875
,,,-6.71679981e-005,  -0.0428125
,,,-6.71599981e-005, -0.03867188
,,,-6.71519981e-005, -0.02664063
,,,-6.71439981e-005, -0.01000001
