width_delay_beam_experiment/data_26-10-2015/inu_delay_1590_width_6.9.csv

"Record Length",50000,"Points",-7.2031998e-005, 0.001062493
"Sample Interval",7.99999977e-009,s,-7.2023998e-005,  0.01240624
"Trigger Point",9004,"Samples",-7.2015998e-005,  0.02534374
"Trigger Time",           0,s,-7.2007998e-005,  0.03031249
"",,,-7.1999998e-005,  0.02931249
"Horizontial Offset",-7.2031998e-005,s,-7.1991998e-005,  0.02296874
,,,-7.1983998e-005, 0.009124992
,,,-7.1975998e-005,-0.003562507
,,,-7.1967998e-005, -0.01106251
,,,-7.1959998e-005, -0.01100001
,,,-7.1951998e-005,0.0003124925
,,,-7.1943998e-005,  0.01806249
,,,-7.1935998e-005,  0.03356249
,,,-7.1927998e-005,  0.04278124
,,,-7.1919998e-005,  0.04178124
,,,-7.1911998e-005,  0.02681249
,,,-7.1903998e-005, 0.004281243
,,,-7.1895998e-005, -0.01590626
,,,-7.1887998e-005, -0.02878126
,,,-7.1879998e-005, -0.02915626
,,,-7.1871998e-005, -0.01381251
,,,-7.1863998e-005, 0.007249992
,,,-7.1855998e-005,  0.02628124
,,,-7.1847998e-005,  0.03906249
,,,-7.1839998e-005,  0.03646874
,,,-7.1831998e-005,  0.02137499
,,,-7.1823998e-005, 0.001781243
,,,-7.1815998e-005, -0.01556251
,,,-7.1807998e-005, -0.02468751
,,,-7.1799998e-005, -0.01890626
,,,-7.1791998e-005,-0.0008750074
,,,-7.1783998e-005,  0.01928124
,,,-7.1775998e-005,  0.03834374
,,,-7.1767998e-005,  0.04831249
,,,-7.1759998e-005,  0.04221874
,,,-7.1751998e-005,  0.02834374
,,,-7.1743998e-005, 0.009218742
,,,-7.1735998e-005,-0.009218757
,,,-7.1727998e-005, -0.01850001
,,,-7.1719998e-005, -0.01484376
,,,-7.1711998e-005,-0.002625007
,,,-7.1703998e-005,  0.01328124
,,,-7.1695998e-005,  0.02934374
,,,-7.1687998e-005,  0.03224999
,,,-7.1679998e-005,  0.02749999
,,,-7.1671998e-005,  0.01193749
,,,-7.1663998e-005,-0.007281257
,,,-7.1655998e-005, -0.02243751
,,,-7.1647998e-005, -0.02806251
,,,-7.1639998e-005, -0.02150001
,,,-7.1631998e-005,-0.003812507
,,,-7.1623998e-005,  0.01681249
,,,-7.1615998e-005,  0.03353124
,,,-7.1607998e-005,  0.03899999
,,,-7.1599998e-005,  0.03562499
,,,-7.1591998e-005,  0.01937499
,,,-7.1583998e-005,0.0006249925
,,,-7.1575998e-005, -0.01303126
,,,-7.1567998e-005, -0.01846876
,,,-7.1559998e-005, -0.01312501
,,,-7.1551998e-005, 0.002156243
,,,-7.1543998e-005,  0.01809374
,,,-7.1535998e-005,  0.02881249
,,,-7.1527998e-005,  0.03424999
,,,-7.1519998e-005,  0.03037499
,,,-7.1511998e-005,  0.01621874
,,,-7.1503998e-005, 0.004718743
,,,-7.1495998e-005,-0.001656257
,,,-7.1487998e-005,-0.003718757
,,,-7.1479998e-005, 0.003406243
,,,-7.1471998e-005,  0.01837499
,,,-7.1463998e-005,  0.03003124
,,,-7.1455998e-005,  0.03949999
,,,-7.1447998e-005,  0.04365624
,,,-7.1439998e-005,  0.03649999
,,,-7.1431998e-005,  0.02506249
,,,-7.1423998e-005,  0.01215624
,,,-7.1415998e-005,-7.450581e-009
,,,-7.1407998e-005,-0.008343757
,,,-7.1399998e-005,-0.005906257
,,,-7.1391998e-005,0.0009062425
,,,-7.1383998e-005,  0.01065624
,,,-7.1375998e-005,  0.02428124
,,,-7.1367998e-005,  0.03043749
,,,-7.1359998e-005,  0.02959374
,,,-7.1351998e-005,  0.02412499
,,,-7.1343998e-005,  0.01115624
,,,-7.1335998e-005,-0.003468757
,,,-7.1327998e-005, -0.01034376
,,,-7.1319998e-005,-0.009281257
,,,-7.1311998e-005,-3.125745e-005
,,,-7.1303998e-005,  0.01674999
,,,-7.1295998e-005,  0.03493749
,,,-7.1287998e-005,  0.04237499
,,,-7.1279998e-005,  0.04184374
,,,-7.1271998e-005,  0.02846874
,,,-7.1263998e-005, 0.005749993
,,,-7.1255998e-005, -0.01581251
,,,-7.1247998e-005, -0.02840626
,,,-7.1239998e-005, -0.03012501
,,,-7.1231998e-005, -0.01609376
,,,-7.1223998e-005, 0.006437493
,,,-7.1215998e-005,  0.02624999
,,,-7.1207998e-005,  0.03806249
,,,-7.1199998e-005,  0.03674999
,,,-7.1191998e-005,  0.02137499
,,,-7.1183998e-005, 0.001499993
,,,-7.1175998e-005, -0.01640626
,,,-7.1167998e-005, -0.02512501
,,,-7.1159998e-005, -0.01965626
,,,-7.1151998e-005,-0.002468757
,,,-7.1143998e-005,  0.01821874
,,,-7.1135998e-005,  0.03781249
,,,-7.1127998e-005,  0.04659374
,,,-7.1119998e-005,  0.04362499
,,,-7.1111998e-005,  0.02809374
,,,-7.1103998e-005, 0.008812492
,,,-7.1095998e-005,-0.008093757
,,,-7.1087998e-005, -0.01887501
,,,-7.1079998e-005, -0.01637501
,,,-7.1071998e-005,-0.001875007
,,,-7.1063998e-005,  0.01281249
,,,-7.1055998e-005,  0.02793749
,,,-7.1047998e-005,  0.03424999
,,,-7.1039998e-005,  0.02796874
,,,-7.1031998e-005,  0.01403124
,,,-7.1023998e-005,-0.005781257
,,,-7.1015998e-005, -0.02118751
,,,-7.1007998e-005, -0.02778126
,,,-7.0999998e-005, -0.02162501
,,,-7.0991998e-005,-0.004468757
,,,-7.0983998e-005,  0.01446874
,,,-7.0975998e-005,  0.03468749
,,,-7.0967998e-005,  0.04037499
,,,-7.0959998e-005,  0.03646874
,,,-7.0951998e-005,  0.02243749
,,,-7.0943998e-005, 0.002343743
,,,-7.0935998e-005, -0.01218751
,,,-7.0927998e-005, -0.02015626
,,,-7.0919998e-005, -0.01478126
,,,-7.0911998e-005,-0.0005625074
,,,-7.0903998e-005,  0.01640624
,,,-7.0895998e-005,  0.02949999
,,,-7.0887998e-005,  0.03349999
,,,-7.0879998e-005,  0.03021874
,,,-7.0871998e-005,  0.01828124
,,,-7.0863998e-005, 0.005656243
,,,-7.0855998e-005,-0.002218757
,,,-7.0847998e-005,-0.004937507
,,,-7.0839998e-005, 0.002031243
,,,-7.0831998e-005,  0.01590624
,,,-7.0823998e-005,  0.02887499
,,,-7.0815998e-005,  0.03943749
,,,-7.0807998e-005,  0.04371874
,,,-7.0799998e-005,  0.03840624
,,,-7.0791998e-005,  0.02699999
,,,-7.0783998e-005,  0.01399999
,,,-7.0775998e-005, 0.001187493
,,,-7.0767998e-005,-0.007625007
,,,-7.0759998e-005,-0.006000007
,,,-7.0751998e-005,0.0006562425
,,,-7.0743998e-005,  0.01056249
,,,-7.0735998e-005,  0.02359374
,,,-7.0727998e-005,  0.03206249
,,,-7.0719998e-005,  0.02981249
,,,-7.0711998e-005,  0.02556249
,,,-7.0703998e-005,  0.01128124
,,,-7.0695998e-005,-0.003093757
,,,-7.0687998e-005, -0.01140626
,,,-7.0679998e-005, -0.01065626
,,,-7.0671998e-005,-0.001375007
,,,-7.0663998e-005,  0.01431249
,,,-7.0655998e-005,  0.03315624
,,,-7.0647998e-005,  0.04137499
,,,-7.0639998e-005,  0.04253124
,,,-7.0631998e-005,  0.02990624
,,,-7.0623998e-005, 0.007843742
,,,-7.0615998e-005, -0.01475001
,,,-7.0607998e-005, -0.02775001
,,,-7.0599998e-005, -0.02990626
,,,-7.0591998e-005, -0.01721876
,,,-7.0583998e-005, 0.004124993
,,,-7.0575998e-005,  0.02424999
,,,-7.0567998e-005,  0.03662499
,,,-7.0559998e-005,  0.03799999
,,,-7.0551998e-005,  0.02362499
,,,-7.0543998e-005, 0.003687493
,,,-7.0535998e-005, -0.01287501
,,,-7.0527998e-005, -0.02481251
,,,-7.0519998e-005, -0.02000001
,,,-7.0511998e-005,-0.004437507
,,,-7.0503998e-005,  0.01637499
,,,-7.0495998e-005,  0.03537499
,,,-7.0487998e-005,  0.04731249
,,,-7.0479998e-005,  0.04456249
,,,-7.0471998e-005,  0.02943749
,,,-7.0463998e-005,  0.01162499
,,,-7.0455998e-005,-0.006312507
,,,-7.0447998e-005, -0.01853126
,,,-7.0439998e-005, -0.01650001
,,,-7.0431998e-005,-0.004250007
,,,-7.0423998e-005,  0.01087499
,,,-7.0415998e-005,  0.02649999
,,,-7.0407998e-005,  0.03378124
,,,-7.0399998e-005,  0.02774999
,,,-7.0391998e-005,  0.01506249
,,,-7.0383998e-005,-0.003625007
,,,-7.0375998e-005, -0.01984376
,,,-7.0367998e-005, -0.02862501
,,,-7.0359998e-005, -0.02190626
,,,-7.0351998e-005,-0.007156257
,,,-7.0343998e-005,  0.01262499
,,,-7.0335998e-005,  0.03349999
,,,-7.0327998e-005,  0.03931249
,,,-7.0319998e-005,  0.03624999
,,,-7.0311998e-005,  0.02309374
,,,-7.0303998e-005, 0.004781243
,,,-7.0295998e-005, -0.01225001
,,,-7.0287998e-005, -0.01809376
,,,-7.0279998e-005, -0.01337501
,,,-7.0271998e-005,-0.001156257
,,,-7.0263998e-005,  0.01537499
,,,-7.0255998e-005,  0.03018749
,,,-7.0247998e-005,  0.03287499
,,,-7.0239998e-005,  0.03068749
,,,-7.0231998e-005,  0.01956249
,,,-7.0223998e-005, 0.006687492
,,,-7.0215998e-005,-0.0007500074
,,,-7.0207998e-005,-0.002812507
,,,-7.0199998e-005, 0.002093743
,,,-7.0191998e-005,  0.01471874
,,,-7.0183998e-005,  0.02884374
,,,-7.0175998e-005,  0.03768749
,,,-7.0167998e-005,  0.04287499
,,,-7.0159998e-005,  0.03896874
,,,-7.0151998e-005,  0.02790624
,,,-7.0143998e-005,  0.01384374
,,,-7.0135998e-005, 0.002156243
,,,-7.0127998e-005,-0.005687507
,,,-7.0119998e-005,-0.007156257
,,,-7.0111998e-005,-0.0001562574
,,,-7.0103998e-005,  0.01009374
,,,-7.0095998e-005,  0.02078124
,,,-7.0087998e-005,  0.03062499
,,,-7.0079998e-005,  0.03090624
,,,-7.0071998e-005,  0.02412499
,,,-7.0063998e-005,  0.01262499
,,,-7.0055998e-005,-0.0002500074
,,,-7.0047998e-005, -0.01093751
,,,-7.0039998e-005, -0.01006251
,,,-7.0031998e-005,-0.0005937574
,,,-7.0023998e-005,  0.01309374
,,,-7.0015998e-005,  0.03215624
,,,-7.0007998e-005,  0.04268749
,,,-6.9999998e-005,  0.04324999
,,,-6.9991998e-005,  0.03140624
,,,-6.9983998e-005,  0.01012499
,,,-6.9975998e-005, -0.01200001
,,,-6.9967998e-005, -0.02743751
,,,-6.9959998e-005, -0.02878126
,,,-6.9951998e-005, -0.01846876
,,,-6.9943998e-005, 0.002093743
,,,-6.9935998e-005,  0.02371874
,,,-6.9927998e-005,  0.03603124
,,,-6.9919998e-005,  0.03749999
,,,-6.9911998e-005,  0.02559374
,,,-6.9903998e-005, 0.005062493
,,,-6.9895998e-005, -0.01340626
,,,-6.9887998e-005, -0.02365626
,,,-6.9879998e-005, -0.02196876
,,,-6.9871998e-005,-0.007062507
,,,-6.9863998e-005,  0.01521874
,,,-6.9855998e-005,  0.03440624
,,,-6.9847998e-005,  0.04612499
,,,-6.9839998e-005,  0.04490624
,,,-6.9831998e-005,  0.03153124
,,,-6.9823998e-005,  0.01287499
,,,-6.9815998e-005,-0.005843757
,,,-6.9807998e-005, -0.01715626
,,,-6.9799998e-005, -0.01590626
,,,-6.9791998e-005,-0.005343757
,,,-6.9783998e-005,  0.01109374
,,,-6.9775998e-005,  0.02640624
,,,-6.9767998e-005,  0.03484374
,,,-6.9759998e-005,  0.03049999
,,,-6.9751998e-005,  0.01724999
,,,-6.9743998e-005,-0.001625007
,,,-6.9735998e-005, -0.01853126
,,,-6.9727998e-005, -0.02671876
,,,-6.9719998e-005, -0.02356251
,,,-6.9711998e-005,-0.008187507
,,,-6.9703998e-005,  0.01134374
,,,-6.9695998e-005,  0.02953124
,,,-6.9687998e-005,  0.03918749
,,,-6.9679998e-005,  0.03728124
,,,-6.9671998e-005,  0.02368749
,,,-6.9663998e-005, 0.004937493
,,,-6.9655998e-005, -0.01096876
,,,-6.9647998e-005, -0.02015626
,,,-6.9639998e-005, -0.01656251
,,,-6.9631998e-005,-0.002343757
,,,-6.9623998e-005,  0.01259374
,,,-6.9615998e-005,  0.02734374
,,,-6.9607998e-005,  0.03396874
,,,-6.9599998e-005,  0.02993749
,,,-6.9591998e-005,  0.02090624
,,,-6.9583998e-005, 0.007843742
,,,-6.9575998e-005,-0.0005625074
,,,-6.9567998e-005,-0.003250007
,,,-6.9559998e-005, 0.002624993
,,,-6.9551998e-005,  0.01346874
,,,-6.9543998e-005,  0.02774999
,,,-6.9535998e-005,  0.03874999
,,,-6.9527998e-005,  0.04262499
,,,-6.9519998e-005,  0.04003124
,,,-6.9511998e-005,  0.02981249
,,,-6.9503998e-005,  0.01599999
,,,-6.9495998e-005, 0.003874993
,,,-6.9487998e-005,-0.005531257
,,,-6.9479998e-005,-0.006968757
,,,-6.9471998e-005,-0.0005312574
,,,-6.9463998e-005, 0.008812492
,,,-6.9455998e-005,  0.02031249
,,,-6.9447998e-005,  0.02931249
,,,-6.9439998e-005,  0.03128124
,,,-6.9431998e-005,  0.02543749
,,,-6.9423998e-005,  0.01437499
,,,-6.9415998e-005,-9.375745e-005
,,,-6.9407998e-005, -0.01040626
,,,-6.9399998e-005, -0.01078126
,,,-6.9391998e-005,-0.003375007
,,,-6.9383998e-005,  0.01118749
,,,-6.9375998e-005,  0.03021874
,,,-6.9367998e-005,  0.04209374
,,,-6.9359998e-005,  0.04293749
,,,-6.9351998e-005,  0.03293749
,,,-6.9343998e-005,  0.01256249
,,,-6.9335998e-005, -0.01131251
,,,-6.9327998e-005, -0.02481251
,,,-6.9319998e-005, -0.02890626
,,,-6.9311998e-005, -0.01968751
,,,-6.9303998e-005, 0.001281243
,,,-6.9295998e-005,  0.02346874
,,,-6.9287998e-005,  0.03603124
,,,-6.9279998e-005,  0.03809374
,,,-6.9271998e-005,  0.02806249
,,,-6.9263998e-005, 0.006531243
,,,-6.9255998e-005, -0.01218751
,,,-6.9247998e-005, -0.02184376
,,,-6.9239998e-005, -0.02246876
,,,-6.9231998e-005,-0.007593757
,,,-6.9223998e-005,  0.01474999
,,,-6.9215998e-005,  0.03312499
,,,-6.9207998e-005,  0.04509374
,,,-6.9199998e-005,  0.04531249
,,,-6.9191998e-005,  0.03271874
,,,-6.9183998e-005,  0.01156249
,,,-6.9175998e-005,-0.003750007
,,,-6.9167998e-005, -0.01762501
,,,-6.9159998e-005, -0.01868751
,,,-6.9151998e-005,-0.005187507
,,,-6.9143998e-005, 0.008718742
,,,-6.9135998e-005,  0.02503124
,,,-6.9127998e-005,  0.03371874
,,,-6.9119998e-005,  0.03034374
,,,-6.9111998e-005,  0.01728124
,,,-6.9103998e-005,-0.0008750074
,,,-6.9095998e-005, -0.01762501
,,,-6.9087998e-005, -0.02756251
,,,-6.9079998e-005, -0.02328126
,,,-6.9071998e-005,-0.008718757
,,,-6.9063998e-005,  0.01103124
,,,-6.9055998e-005,  0.03074999
,,,-6.9047998e-005,  0.03996874
,,,-6.9039998e-005,  0.03809374
,,,-6.9031998e-005,  0.02609374
,,,-6.9023998e-005, 0.006906242
,,,-6.9015998e-005,-0.009343757
,,,-6.9007998e-005, -0.01856251
,,,-6.8999998e-005, -0.01481251
,,,-6.8991998e-005,-0.002718757
,,,-6.8983998e-005,  0.01249999
,,,-6.8975998e-005,  0.02834374
,,,-6.8967998e-005,  0.03337499
,,,-6.8959998e-005,  0.03271874
,,,-6.8951998e-005,  0.02221874
,,,-6.89439981e-005, 0.007656242
,,,-6.89359981e-005,-0.0007500074
,,,-6.89279981e-005,-0.004250007
,,,-6.89199981e-005,-0.0003125074
,,,-6.89119981e-005,  0.01349999
,,,-6.89039981e-005,  0.02615624
,,,-6.88959981e-005,  0.03828124
,,,-6.88879981e-005,  0.04493749
,,,-6.88799981e-005,  0.04021874
,,,-6.88719981e-005,  0.02971874
,,,-6.88639981e-005,  0.01596874
,,,-6.88559981e-005, 0.002999993
,,,-6.88479981e-005,-0.006812507
,,,-6.88399981e-005,-0.008781257
,,,-6.88319981e-005,-0.002312507
,,,-6.88239981e-005, 0.007624992
,,,-6.88159981e-005,  0.01984374
,,,-6.88079981e-005,  0.02978124
,,,-6.87999981e-005,  0.03143749
,,,-6.87919981e-005,  0.02703124
,,,-6.87839981e-005,  0.01468749
,,,-6.87759981e-005,0.0003437425
,,,-6.87679981e-005,-0.009625007
,,,-6.87599981e-005, -0.01221876
,,,-6.87519981e-005,-0.004375007
,,,-6.87439981e-005,  0.01121874
,,,-6.87359981e-005,  0.02859374
,,,-6.87279981e-005,  0.04190624
,,,-6.87199981e-005,  0.04490624
,,,-6.87119981e-005,  0.03434374
,,,-6.87039981e-005,  0.01403124
,,,-6.86959981e-005,-0.007625007
,,,-6.86879981e-005, -0.02543751
,,,-6.86799981e-005, -0.03025001
,,,-6.86719981e-005, -0.02018751
,,,-6.86639981e-005,-0.001343757
,,,-6.86559981e-005,  0.02078124
,,,-6.86479981e-005,  0.03606249
,,,-6.86399981e-005,  0.03909374
,,,-6.86319981e-005,  0.02846874
,,,-6.86239981e-005, 0.009124992
,,,-6.86159981e-005,-0.009875007
,,,-6.86079981e-005, -0.02278126
,,,-6.85999981e-005, -0.02328126
,,,-6.85919981e-005,-0.009812507
,,,-6.85839981e-005,  0.01112499
,,,-6.85759981e-005,  0.03165624
,,,-6.85679981e-005,  0.04537499
,,,-6.85599981e-005,  0.04599999
,,,-6.85519981e-005,  0.03431249
,,,-6.85439981e-005,  0.01556249
,,,-6.85359981e-005,-0.002031257
,,,-6.85279981e-005, -0.01628126
,,,-6.85199981e-005, -0.01831251
,,,-6.85119981e-005,-0.007062507
,,,-6.85039981e-005, 0.007718742
,,,-6.84959981e-005,  0.02362499
,,,-6.84879981e-005,  0.03409374
,,,-6.84799981e-005,  0.03106249
,,,-6.84719981e-005,  0.01906249
,,,-6.84639981e-005,0.0009374925
,,,-6.84559981e-005, -0.01640626
,,,-6.84479981e-005, -0.02712501
,,,-6.84399981e-005, -0.02400001
,,,-6.84319981e-005, -0.01096876
,,,-6.84239981e-005, 0.008656242
,,,-6.84159981e-005,  0.02771874
,,,-6.84079981e-005,  0.03928124
,,,-6.83999981e-005,  0.03815624
,,,-6.83919981e-005,  0.02665624
,,,-6.83839981e-005, 0.008593742
,,,-6.83759981e-005,-0.009343757
,,,-6.83679981e-005, -0.01896876
,,,-6.83599981e-005, -0.01631251
,,,-6.83519981e-005,-0.003968757
,,,-6.83439981e-005,  0.01096874
,,,-6.83359981e-005,  0.02615624
,,,-6.83279981e-005,  0.03359374
,,,-6.83199981e-005,  0.03140624
,,,-6.83119981e-005,  0.02231249
,,,-6.83039981e-005, 0.009624992
,,,-6.82959981e-005,-0.0006562574
,,,-6.82879981e-005,-0.004187507
,,,-6.82799981e-005,0.0005937425
,,,-6.82719981e-005,  0.01193749
,,,-6.82639981e-005,  0.02528124
,,,-6.82559981e-005,  0.03771874
,,,-6.82479981e-005,  0.04287499
,,,-6.82399981e-005,  0.04128124
,,,-6.82319981e-005,  0.03153124
,,,-6.82239981e-005,  0.01762499
,,,-6.82159981e-005, 0.005124993
,,,-6.82079981e-005,-0.003375007
,,,-6.81999981e-005,-0.007218757
,,,-6.81919981e-005,-0.001531257
,,,-6.81839981e-005, 0.007937492
,,,-6.81759981e-005,  0.01946874
,,,-6.81679981e-005,  0.02881249
,,,-6.81599981e-005,  0.03124999
,,,-6.81519981e-005,  0.02681249
,,,-6.81439981e-005,  0.01521874
,,,-6.81359981e-005, 0.002062493
,,,-6.81279981e-005,-0.008843757
,,,-6.81199981e-005, -0.01234376
,,,-6.81119981e-005,-0.004687507
,,,-6.81039981e-005, 0.009531242
,,,-6.80959981e-005,  0.02678124
,,,-6.80879981e-005,  0.04068749
,,,-6.80799981e-005,  0.04409374
,,,-6.80719981e-005,  0.03384374
,,,-6.80639981e-005,  0.01446874
,,,-6.80559981e-005,-0.007781257
,,,-6.80479981e-005, -0.02487501
,,,-6.80399981e-005, -0.03087501
,,,-6.80319981e-005, -0.02284376
,,,-6.80239981e-005,-0.003375007
,,,-6.80159981e-005,  0.01859374
,,,-6.80079981e-005,  0.03399999
,,,-6.79999981e-005,  0.03859374
,,,-6.79919981e-005,  0.02909374
,,,-6.79839981e-005,  0.01012499
,,,-6.79759981e-005,-0.009187507
,,,-6.79679981e-005, -0.02328126
,,,-6.79599981e-005, -0.02290626
,,,-6.79519981e-005, -0.01043751
,,,-6.79439981e-005,  0.01006249
,,,-6.79359981e-005,  0.03065624
,,,-6.79279981e-005,  0.04503124
,,,-6.79199981e-005,  0.04693749
,,,-6.79119981e-005,  0.03649999
,,,-6.79039981e-005,  0.01737499
,,,-6.78959981e-005,-0.001562507
,,,-6.78879981e-005, -0.01537501
,,,-6.78799981e-005, -0.01834376
,,,-6.78719981e-005,-0.007937507
,,,-6.78639981e-005, 0.006218743
,,,-6.78559981e-005,  0.02187499
,,,-6.78479981e-005,  0.03328124
,,,-6.78399981e-005,  0.03124999
,,,-6.78319981e-005,  0.01984374
,,,-6.78239981e-005, 0.003468743
,,,-6.78159981e-005, -0.01621876
,,,-6.78079981e-005, -0.02731251
,,,-6.77999981e-005, -0.02587501
,,,-6.77919981e-005, -0.01468751
,,,-6.77839981e-005, 0.005781243
,,,-6.77759981e-005,  0.02696874
,,,-6.77679981e-005,  0.03821874
,,,-6.77599981e-005,  0.03796874
,,,-6.77519981e-005,  0.02849999
,,,-6.77439981e-005, 0.007968742
,,,-6.77359981e-005,-0.008375007
,,,-6.77279981e-005, -0.01700001
,,,-6.77199981e-005, -0.01893751
,,,-6.77119981e-005,-0.006875007
,,,-6.77039981e-005, 0.009593742
,,,-6.76959981e-005,  0.02371874
,,,-6.76879981e-005,  0.03290624
,,,-6.76799981e-005,  0.03281249
,,,-6.76719981e-005,  0.02256249
,,,-6.76639981e-005,  0.01096874
,,,-6.76559981e-005, 0.001687493
,,,-6.76479981e-005,-0.005093757
,,,-6.76399981e-005,-0.0004687574
,,,-6.76319981e-005,  0.01128124
,,,-6.76239981e-005,  0.02268749
,,,-6.76159981e-005,  0.03646874
,,,-6.76079981e-005,  0.04374999
,,,-6.75999981e-005,  0.04068749
,,,-6.75919981e-005,  0.03187499
,,,-6.75839981e-005,  0.01937499
,,,-6.75759981e-005, 0.005406243
,,,-6.75679981e-005,-0.005031257
,,,-6.75599981e-005,-0.007437507
,,,-6.75519981e-005,-0.002187507
,,,-6.75439981e-005, 0.004374993
,,,-6.75359981e-005,  0.01737499
,,,-6.75279981e-005,  0.02699999
,,,-6.75199981e-005,  0.03021874
,,,-6.75119981e-005,  0.02753124
,,,-6.75039981e-005,  0.01712499
,,,-6.74959981e-005, 0.003749993
,,,-6.74879981e-005,-0.007656257
,,,-6.74799981e-005, -0.01212501
,,,-6.74719981e-005,-0.006281257
,,,-6.74639981e-005, 0.006624993
,,,-6.74559981e-005,  0.02546874
,,,-6.74479981e-005,  0.04090624
,,,-6.74399981e-005,  0.04324999
,,,-6.74319981e-005,  0.03524999
,,,-6.74239981e-005,  0.01859374
,,,-6.74159981e-005,-0.004437507
,,,-6.74079981e-005, -0.02296876
,,,-6.73999981e-005, -0.02946876
,,,-6.73919981e-005, -0.02259376
,,,-6.73839981e-005,-0.003781257
,,,-6.73759981e-005,  0.01765624
,,,-6.73679981e-005,  0.03290624
,,,-6.73599981e-005,  0.03834374
,,,-6.73519981e-005,  0.03087499
,,,-6.73439981e-005,  0.01124999
,,,-6.73359981e-005,-0.008343757
,,,-6.73279981e-005, -0.02050001
,,,-6.73199981e-005, -0.02396876
,,,-6.73119981e-005, -0.01271876
,,,-6.73039981e-005, 0.008562492
,,,-6.72959981e-005,  0.02740624
,,,-6.72879981e-005,  0.04134374
,,,-6.72799981e-005,  0.04621874
,,,-6.72719981e-005,  0.03534374
,,,-6.72639981e-005,  0.01721874
,,,-6.72559981e-005,-7.450581e-009
,,,-6.72479981e-005, -0.01437501
,,,-6.72399981e-005, -0.01881251
,,,-6.72319981e-005, -0.01040626
,,,-6.72239981e-005, 0.005531243
,,,-6.72159981e-005,  0.02049999
,,,-6.72079981e-005,  0.03168749
,,,-6.71999981e-005,  0.03143749
,,,-6.71919981e-005,  0.02099999
,,,-6.71839981e-005, 0.003281243
,,,-6.71759981e-005, -0.01387501
,,,-6.71679981e-005, -0.02581251
,,,-6.71599981e-005, -0.02612501
,,,-6.71519981e-005, -0.01171876
,,,-6.71439981e-005, 0.006343743
