width_delay_beam_experiment/data_26-10-2015/wani_deay_1617_width_0.3.csv

"Record Length",50000,"Points",-9.10800012e-007,-0.0005468752
"Sample Interval",2.00000003e-010,s,-9.10600012e-007,-0.0006406252
"Trigger Point",4554,"Samples",-9.10400012e-007,-0.0006562502
"Trigger Time",           0,s,-9.10200012e-007,-0.0006093752
"",,,-9.10000012e-007,-0.0005390627
"Horizontial Offset",-9.10800012e-007,s,-9.09800012e-007,-0.0006875002
,,,-9.09600012e-007,-0.0007578127
,,,-9.09400012e-007,-0.0008203127
,,,-9.09200012e-007,-0.0006875002
,,,-9.09000012e-007,-0.0004765627
,,,-9.08800012e-007,-0.0003828127
,,,-9.08600012e-007,-0.0005390627
,,,-9.08400012e-007,-0.0006484377
,,,-9.08200012e-007,-0.0006250002
,,,-9.08000012e-007,-0.0005078127
,,,-9.07800012e-007,-0.0003828127
,,,-9.07600012e-007,-0.0003828127
,,,-9.07400012e-007,-0.0004843752
,,,-9.07200012e-007,-0.0005312502
,,,-9.07000012e-007,-0.0004453127
,,,-9.06800012e-007,-0.0003671877
,,,-9.06600012e-007,-0.0003437502
,,,-9.06400012e-007,-0.0003828127
,,,-9.06200012e-007,-0.0003515627
,,,-9.06000012e-007,-0.0003750002
,,,-9.05800012e-007,-0.0004062502
,,,-9.05600012e-007,-0.0004140627
,,,-9.05400012e-007,-0.0003125002
,,,-9.05200012e-007,-0.0002343752
,,,-9.05000012e-007,-0.0002421877
,,,-9.04800012e-007,-0.0003125002
,,,-9.04600012e-007,-0.0002890627
,,,-9.04400012e-007,-0.0002578127
,,,-9.04200012e-007,-0.0002265627
,,,-9.04000012e-007,-0.0002578127
,,,-9.03800012e-007,-0.0002265627
,,,-9.03600012e-007,-0.0001875002
,,,-9.03400012e-007,-0.0001484377
,,,-9.03200012e-007,-7.812519e-005
,,,-9.03000012e-007,-8.593769e-005
,,,-9.02800012e-007,-0.0002265627
,,,-9.02600012e-007,-0.0002812502
,,,-9.02400012e-007,-0.0001093752
,,,-9.02200012e-007,0.0001093748
,,,-9.02000012e-007,0.0002031248
,,,-9.01800012e-007,6.249981e-005
,,,-9.01600012e-007,-6.250019e-005
,,,-9.01400012e-007,-0.0001171877
,,,-9.01200012e-007,-9.375019e-005
,,,-9.01000012e-007,-3.125019e-005
,,,-9.00800012e-007,5.468731e-005
,,,-9.00600012e-007,0.0001093748
,,,-9.00400012e-007,2.343731e-005
,,,-9.00200012e-007,-2.343769e-005
,,,-9.00000012e-007,-7.812686e-006
,,,-8.99800012e-007,9.374981e-005
,,,-8.99600012e-007,0.0001093748
,,,-8.99400012e-007,0.0001562498
,,,-8.99200012e-007,0.0001484373
,,,-8.99000012e-007,0.0001718748
,,,-8.98800012e-007,0.0001718748
,,,-8.98600012e-007,0.0001953123
,,,-8.98400012e-007,0.0002499998
,,,-8.98200012e-007,0.0002656248
,,,-8.98000012e-007,0.0001796873
,,,-8.97800012e-007,0.0002031248
,,,-8.97600012e-007,0.0002734373
,,,-8.97400012e-007,0.0002578123
,,,-8.97200012e-007,0.0002265623
,,,-8.97000012e-007,0.0001796873
,,,-8.96800012e-007,0.0001953123
,,,-8.96600012e-007,0.0002109373
,,,-8.96400012e-007,0.0002734373
,,,-8.96200012e-007,0.0002890623
,,,-8.96000012e-007,0.0003515623
,,,-8.95800012e-007,0.0003593748
,,,-8.95600012e-007,0.0003906248
,,,-8.95400012e-007,0.0004218748
,,,-8.95200012e-007,0.0003749998
,,,-8.95000012e-007,0.0003046873
,,,-8.94800012e-007,0.0003203123
,,,-8.94600012e-007,0.0004062498
,,,-8.94400012e-007,0.0005390623
,,,-8.94200012e-007,0.0005468748
,,,-8.94000012e-007,0.0004531248
,,,-8.93800012e-007,0.0004062498
,,,-8.93600012e-007,0.0004687498
,,,-8.93400012e-007,0.0005078123
,,,-8.93200012e-007,0.0005546873
,,,-8.93000012e-007,0.0005468748
,,,-8.92800012e-007,0.0005624998
,,,-8.92600012e-007,0.0005312498
,,,-8.92400012e-007,0.0005312498
,,,-8.92200012e-007,0.0005390623
,,,-8.92000012e-007,0.0004374998
,,,-8.91800012e-007,0.0003515623
,,,-8.91600012e-007,0.0003515623
,,,-8.91400012e-007,0.0004921873
,,,-8.91200012e-007,0.0005234373
,,,-8.91000012e-007,0.0005156248
,,,-8.90800012e-007,0.0005234373
,,,-8.90600012e-007,0.0006093748
,,,-8.90400012e-007,0.0005937498
,,,-8.90200012e-007,0.0005859373
,,,-8.90000012e-007,0.0005859373
,,,-8.89800012e-007,0.0006718748
,,,-8.89600012e-007,0.0006718748
,,,-8.89400012e-007,0.0006093748
,,,-8.89200012e-007,0.0005234373
,,,-8.89000012e-007,0.0005703123
,,,-8.88800012e-007,0.0006796873
,,,-8.88600012e-007,0.0007499998
,,,-8.88400012e-007,0.0006874998
,,,-8.88200012e-007,0.0006484373
,,,-8.88000012e-007,0.0006796873
,,,-8.87800012e-007,0.0006796873
,,,-8.87600012e-007,0.0006484373
,,,-8.87400012e-007,0.0004843748
,,,-8.87200012e-007,0.0004296873
,,,-8.87000012e-007,0.0004921873
,,,-8.86800012e-007,0.0006718748
,,,-8.86600012e-007,0.0006484373
,,,-8.86400012e-007,0.0005312498
,,,-8.86200012e-007,0.0004843748
,,,-8.86000012e-007,0.0005859373
,,,-8.85800012e-007,0.0006874998
,,,-8.85600012e-007,0.0006640623
,,,-8.85400012e-007,0.0005703123
,,,-8.85200012e-007,0.0005234373
,,,-8.85000012e-007,0.0005546873
,,,-8.84800012e-007,0.0005468748
,,,-8.84600012e-007,0.0006171873
,,,-8.84400012e-007,0.0006718748
,,,-8.84200012e-007,0.0006562498
,,,-8.84000012e-007,0.0006249998
,,,-8.83800012e-007,0.0006406248
,,,-8.83600012e-007,0.0007109373
,,,-8.83400012e-007,0.0007421873
,,,-8.83200012e-007,0.0007812498
,,,-8.83000012e-007,0.0008046873
,,,-8.82800012e-007,0.0007890623
,,,-8.82600012e-007,0.0007109373
,,,-8.82400012e-007,0.0006015623
,,,-8.82200012e-007,0.0005468748
,,,-8.82000012e-007,0.0005781248
,,,-8.81800012e-007,0.0006328123
,,,-8.81600012e-007,0.0006953123
,,,-8.81400012e-007,0.0007031248
,,,-8.81200012e-007,0.0007343748
,,,-8.81000012e-007,0.0007890623
,,,-8.80800012e-007,0.0009062498
,,,-8.80600012e-007,0.0009999998
,,,-8.80400012e-007,0.0009999998
,,,-8.80200012e-007,0.0008906248
,,,-8.80000012e-007,0.0007890623
,,,-8.79800012e-007,0.0007343748
,,,-8.79600012e-007,0.0007812498
,,,-8.79400012e-007,0.0008046873
,,,-8.79200012e-007,0.0007812498
,,,-8.79000012e-007,0.0007656248
,,,-8.78800012e-007,0.0008124998
,,,-8.78600012e-007,0.0008828123
,,,-8.78400012e-007,0.0009765623
,,,-8.78200012e-007,0.0008984373
,,,-8.78000012e-007,0.0008281248
,,,-8.77800012e-007,0.0008281248
,,,-8.77600012e-007,0.0008515623
,,,-8.77400012e-007,0.0008906248
,,,-8.77200012e-007,0.0009687498
,,,-8.77000012e-007,0.0009609373
,,,-8.76800012e-007,0.0008984373
,,,-8.76600012e-007,0.0008671873
,,,-8.76400012e-007,0.0009140623
,,,-8.76200012e-007,0.0009374998
,,,-8.76000012e-007,0.0008593748
,,,-8.75800012e-007,0.0008984373
,,,-8.75600012e-007,0.0009765623
,,,-8.75400012e-007,0.0009765623
,,,-8.75200012e-007,0.0009140623
,,,-8.75000012e-007,0.0007890623
,,,-8.74800012e-007,0.0008828123
,,,-8.74600012e-007, 0.001070312
,,,-8.74400012e-007, 0.001132812
,,,-8.74200012e-007, 0.001078125
,,,-8.74000012e-007, 0.001007812
,,,-8.73800012e-007,  0.00103125
,,,-8.73600012e-007,0.0009687498
,,,-8.73400012e-007,0.0009374998
,,,-8.73200012e-007,0.0009921873
,,,-8.73000012e-007,0.0009765623
,,,-8.72800012e-007,0.0009140623
,,,-8.72600012e-007,0.0008984373
,,,-8.72400012e-007,0.0009453123
,,,-8.72200012e-007,0.0009999998
,,,-8.72000012e-007,0.0009843748
,,,-8.71800012e-007,0.0009843748
,,,-8.71600012e-007,  0.00103125
,,,-8.71400012e-007, 0.001070312
,,,-8.71200012e-007, 0.001007812
,,,-8.71000012e-007,0.0009843748
,,,-8.70800012e-007, 0.001046875
,,,-8.70600012e-007, 0.001101562
,,,-8.70400012e-007, 0.001015625
,,,-8.70200012e-007,0.0009453123
,,,-8.70000012e-007,0.0009921873
,,,-8.69800012e-007, 0.001140625
,,,-8.69600012e-007,  0.00121875
,,,-8.69400012e-007,   0.0011875
,,,-8.69200012e-007, 0.001101562
,,,-8.69000012e-007, 0.001117187
,,,-8.68800012e-007, 0.001132812
,,,-8.68600012e-007,  0.00109375
,,,-8.68400012e-007, 0.001109375
,,,-8.68200012e-007,    0.001125
,,,-8.68000012e-007, 0.001101562
,,,-8.67800012e-007, 0.001117187
,,,-8.67600012e-007, 0.001085937
,,,-8.67400012e-007, 0.001070312
,,,-8.67200012e-007, 0.001039062
,,,-8.67000012e-007,0.0009843748
,,,-8.66800012e-007,0.0009609373
,,,-8.66600012e-007, 0.001109375
,,,-8.66400012e-007, 0.001140625
,,,-8.66200012e-007, 0.001101562
,,,-8.66000012e-007, 0.001007812
,,,-8.65800012e-007,0.0009374998
,,,-8.65600012e-007,0.0009140623
,,,-8.65400012e-007, 0.001054687
,,,-8.65200012e-007, 0.001234375
,,,-8.65000012e-007, 0.001242187
,,,-8.64800012e-007,   0.0010625
,,,-8.64600012e-007,0.0009765623
,,,-8.64400012e-007,  0.00103125
,,,-8.64200012e-007, 0.001109375
,,,-8.64000012e-007,0.0009921873
,,,-8.63800012e-007,0.0008359373
,,,-8.63600012e-007,0.0008046873
,,,-8.63400012e-007,0.0009765623
,,,-8.63200012e-007,   0.0010625
,,,-8.63000012e-007,0.0009609373
,,,-8.62800012e-007,0.0008671873
,,,-8.62600012e-007,0.0009218748
,,,-8.62400012e-007, 0.001148437
,,,-8.62200012e-007, 0.001210937
,,,-8.62000012e-007, 0.001109375
,,,-8.61800012e-007, 0.001046875
,,,-8.61600012e-007, 0.001226562
,,,-8.61400012e-007, 0.001429687
,,,-8.61200011e-007, 0.001414062
,,,-8.61000011e-007, 0.001234375
,,,-8.60800011e-007, 0.001101562
,,,-8.60600011e-007, 0.001015625
,,,-8.60400011e-007,0.0009921873
,,,-8.60200011e-007,0.0009843748
,,,-8.60000011e-007, 0.001023437
,,,-8.59800011e-007, 0.001070312
,,,-8.59600011e-007,   0.0010625
,,,-8.59400011e-007,0.0009531248
,,,-8.59200011e-007,0.0009296873
,,,-8.59000011e-007,0.0009687498
,,,-8.58800011e-007, 0.001007812
,,,-8.58600011e-007,0.0009765623
,,,-8.58400011e-007,0.0009921873
,,,-8.58200011e-007, 0.001140625
,,,-8.58000011e-007,     0.00125
,,,-8.57800011e-007, 0.001195312
,,,-8.57600011e-007, 0.001046875
,,,-8.57400011e-007,0.0009218748
,,,-8.57200011e-007,0.0009531248
,,,-8.57000011e-007,  0.00109375
,,,-8.56800011e-007, 0.001117187
,,,-8.56600011e-007,0.0009765623
,,,-8.56400011e-007,0.0009218748
,,,-8.56200011e-007,0.0009374998
,,,-8.56000011e-007, 0.001054687
,,,-8.55800011e-007,   0.0010625
,,,-8.55600011e-007,0.0009609373
,,,-8.55400011e-007,0.0008437498
,,,-8.55200011e-007,0.0009687498
,,,-8.55000011e-007,  0.00109375
,,,-8.54800011e-007, 0.001210937
,,,-8.54600011e-007, 0.001023437
,,,-8.54400011e-007,0.0009531248
,,,-8.54200011e-007,  0.00109375
,,,-8.54000011e-007, 0.001242187
,,,-8.53800011e-007,  0.00115625
,,,-8.53600011e-007,0.0009531248
,,,-8.53400011e-007,0.0008749998
,,,-8.53200011e-007,0.0009999998
,,,-8.53000011e-007, 0.001078125
,,,-8.52800011e-007,  0.00103125
,,,-8.52600011e-007,0.0009296873
,,,-8.52400011e-007,0.0009765623
,,,-8.52200011e-007, 0.001046875
,,,-8.52000011e-007, 0.001007812
,,,-8.51800011e-007,0.0009218748
,,,-8.51600011e-007,0.0008593748
,,,-8.51400011e-007,0.0008749998
,,,-8.51200011e-007,0.0008906248
,,,-8.51000011e-007,0.0008593748
,,,-8.50800011e-007,0.0007421873
,,,-8.50600011e-007,0.0006718748
,,,-8.50400011e-007,0.0007812498
,,,-8.50200011e-007,0.0008593748
,,,-8.50000011e-007,0.0008359373
,,,-8.49800011e-007,0.0007734373
,,,-8.49600011e-007,0.0009062498
,,,-8.49400011e-007,0.0009687498
,,,-8.49200011e-007,0.0009765623
,,,-8.49000011e-007,0.0009843748
,,,-8.48800011e-007,0.0009687498
,,,-8.48600011e-007,0.0008671873
,,,-8.48400011e-007,0.0007343748
,,,-8.48200011e-007,0.0007031248
,,,-8.48000011e-007,0.0007656248
,,,-8.47800011e-007,0.0008749998
,,,-8.47600011e-007,0.0008359373
,,,-8.47400011e-007,0.0008046873
,,,-8.47200011e-007,0.0007499998
,,,-8.47000011e-007,0.0006874998
,,,-8.46800011e-007,0.0007187498
,,,-8.46600011e-007,0.0006953123
,,,-8.46400011e-007,0.0007031248
,,,-8.46200011e-007,0.0006874998
,,,-8.46000011e-007,0.0006640623
,,,-8.45800011e-007,0.0006328123
,,,-8.45600011e-007,0.0006171873
,,,-8.45400011e-007,0.0005624998
,,,-8.45200011e-007,0.0005546873
,,,-8.45000011e-007,0.0005546873
,,,-8.44800011e-007,0.0005624998
,,,-8.44600011e-007,0.0005781248
,,,-8.44400011e-007,0.0005781248
,,,-8.44200011e-007,0.0006874998
,,,-8.44000011e-007,0.0007031248
,,,-8.43800011e-007,0.0006718748
,,,-8.43600011e-007,0.0005859373
,,,-8.43400011e-007,0.0005312498
,,,-8.43200011e-007,0.0004687498
,,,-8.43000011e-007,0.0004062498
,,,-8.42800011e-007,0.0003593748
,,,-8.42600011e-007,0.0003749998
,,,-8.42400011e-007,0.0003906248
,,,-8.42200011e-007,0.0004453123
,,,-8.42000011e-007,0.0004374998
,,,-8.41800011e-007,0.0004609373
,,,-8.41600011e-007,0.0004921873
,,,-8.41400011e-007,0.0005468748
,,,-8.41200011e-007,0.0005078123
,,,-8.41000011e-007,0.0004296873
,,,-8.40800011e-007,0.0003124998
,,,-8.40600011e-007,0.0004296873
,,,-8.40400011e-007,0.0004531248
,,,-8.40200011e-007,0.0004062498
,,,-8.40000011e-007,0.0003124998
,,,-8.39800011e-007,0.0003124998
,,,-8.39600011e-007,0.0003515623
,,,-8.39400011e-007,0.0002890623
,,,-8.39200011e-007,0.0002187498
,,,-8.39000011e-007,0.0002109373
,,,-8.38800011e-007,0.0002109373
,,,-8.38600011e-007,0.0002187498
,,,-8.38400011e-007,0.0002265623
,,,-8.38200011e-007,0.0001562498
,,,-8.38000011e-007,0.0001249998
,,,-8.37800011e-007,0.0001015623
,,,-8.37600011e-007,0.0002187498
,,,-8.37400011e-007,0.0002812498
,,,-8.37200011e-007,0.0002343748
,,,-8.37000011e-007,0.0001093748
,,,-8.36800011e-007,4.687481e-005
,,,-8.36600011e-007,4.687481e-005
,,,-8.36400011e-007,0.0001953123
,,,-8.36200011e-007,0.0002031248
,,,-8.36000011e-007,0.0001406248
,,,-8.35800011e-007,3.124981e-005
,,,-8.35600011e-007,3.124981e-005
,,,-8.35400011e-007,7.812481e-005
,,,-8.35200011e-007,8.593731e-005
,,,-8.35000011e-007,8.593731e-005
,,,-8.34800011e-007,5.468731e-005
,,,-8.34600011e-007,4.687481e-005
,,,-8.34400011e-007,9.374981e-005
,,,-8.34200011e-007,7.031231e-005
,,,-8.34000011e-007,3.124981e-005
,,,-8.33800011e-007,-2.343769e-005
,,,-8.33600011e-007,-7.031269e-005
,,,-8.33400011e-007,-3.125019e-005
,,,-8.33200011e-007,4.687481e-005
,,,-8.33000011e-007,6.249981e-005
,,,-8.32800011e-007,-1.862645e-010
,,,-8.32600011e-007,-0.0002343752
,,,-8.32400011e-007,-0.0003671877
,,,-8.32200011e-007,-0.0003281252
,,,-8.32000011e-007,-0.0002421877
,,,-8.31800011e-007,-0.0001406252
,,,-8.31600011e-007,-0.0001250002
,,,-8.31400011e-007,-0.0001406252
,,,-8.31200011e-007,-0.0001250002
,,,-8.31000011e-007,-0.0002031252
,,,-8.30800011e-007,-0.0003437502
,,,-8.30600011e-007,-0.0003906252
,,,-8.30400011e-007,-0.0003750002
,,,-8.30200011e-007,-0.0004765627
,,,-8.30000011e-007,-0.0004531252
,,,-8.29800011e-007,-0.0003671877
,,,-8.29600011e-007,-0.0003437502
,,,-8.29400011e-007,-0.0003828127
,,,-8.29200011e-007,-0.0003359377
,,,-8.29000011e-007,-0.0002343752
,,,-8.28800011e-007,-0.0001875002
,,,-8.28600011e-007,-0.0002578127
,,,-8.28400011e-007,-0.0003593752
,,,-8.28200011e-007,-0.0004140627
,,,-8.28000011e-007,-0.0004218752
,,,-8.27800011e-007,-0.0004375002
,,,-8.27600011e-007,-0.0003906252
,,,-8.27400011e-007,-0.0003828127
,,,-8.27200011e-007,-0.0004140627
,,,-8.27000011e-007,-0.0004843752
,,,-8.26800011e-007,-0.0004375002
,,,-8.26600011e-007,-0.0004062502
,,,-8.26400011e-007,-0.0005234377
,,,-8.26200011e-007,-0.0006796877
,,,-8.26000011e-007,-0.0007421877
,,,-8.25800011e-007,-0.0005781252
,,,-8.25600011e-007,-0.0004921877
,,,-8.25400011e-007,-0.0005156252
,,,-8.25200011e-007,-0.0005703127
,,,-8.25000011e-007,-0.0005937502
,,,-8.24800011e-007,-0.0005703127
,,,-8.24600011e-007,-0.0006640627
,,,-8.24400011e-007,-0.0007500002
,,,-8.24200011e-007,-0.0007265627
,,,-8.24000011e-007,-0.0007500002
,,,-8.23800011e-007,-0.0007734377
,,,-8.23600011e-007,-0.0007890627
,,,-8.23400011e-007,-0.0007500002
,,,-8.23200011e-007,-0.0007812502
,,,-8.23000011e-007,-0.0008828127
,,,-8.22800011e-007,-0.0009218752
,,,-8.22600011e-007,-0.0008984377
,,,-8.22400011e-007,-0.0009375002
,,,-8.22200011e-007,-0.0009609377
,,,-8.22000011e-007,-0.0009218752
,,,-8.21800011e-007,-0.0008281252
,,,-8.21600011e-007,-0.0007734377
,,,-8.21400011e-007,-0.0008593752
,,,-8.21200011e-007,-0.0008828127
,,,-8.21000011e-007,-0.0009375002
,,,-8.20800011e-007,-0.0009531252
,,,-8.20600011e-007,-0.0009531252
,,,-8.20400011e-007,-0.0009453127
,,,-8.20200011e-007,-0.001039063
,,,-8.20000011e-007,-0.001070313
,,,-8.19800011e-007, -0.00103125
,,,-8.19600011e-007,-0.001023438
,,,-8.19400011e-007,-0.001015625
,,,-8.19200011e-007,-0.001085938
,,,-8.19000011e-007,   -0.001125
,,,-8.18800011e-007, -0.00109375
,,,-8.18600011e-007,-0.001007813
,,,-8.18400011e-007,-0.0009765627
,,,-8.18200011e-007,-0.001023438
,,,-8.18000011e-007,   -0.001125
,,,-8.17800011e-007,-0.001132813
,,,-8.17600011e-007,-0.001140625
,,,-8.17400011e-007,-0.001132813
,,,-8.17200011e-007,-0.001140625
,,,-8.17000011e-007,   -0.001125
,,,-8.16800011e-007,-0.001234375
,,,-8.16600011e-007,-0.001273438
,,,-8.16400011e-007, -0.00134375
,,,-8.16200011e-007,-0.001429688
,,,-8.16000011e-007,-0.001414063
,,,-8.15800011e-007,  -0.0013125
,,,-8.15600011e-007,-0.001304688
,,,-8.15400011e-007,-0.001351563
,,,-8.15200011e-007,-0.001421875
,,,-8.15000011e-007,-0.001453125
,,,-8.14800011e-007,   -0.001375
,,,-8.14600011e-007,  -0.0014375
,,,-8.14400011e-007,-0.001601563
,,,-8.14200011e-007, -0.00165625
,,,-8.14000011e-007,-0.001476563
,,,-8.13800011e-007, -0.00140625
,,,-8.13600011e-007,-0.001445313
,,,-8.13400011e-007,-0.001546875
,,,-8.13200011e-007,-0.001539063
,,,-8.13000011e-007,-0.001460938
,,,-8.12800011e-007,-0.001460938
,,,-8.12600011e-007,   -0.001625
,,,-8.12400011e-007,  -0.0016875
,,,-8.12200011e-007,-0.001578125
,,,-8.12000011e-007,-0.001570313
,,,-8.11800011e-007,-0.001617188
,,,-8.11600011e-007,-0.001703125
,,,-8.11400011e-007, -0.00171875
,,,-8.11200011e-007,-0.001773438
,,,-8.11000011e-007,  -0.0018125
,,,-8.10800011e-007,  -0.0018125
,,,-8.10600011e-007, -0.00178125
,,,-8.10400011e-007,-0.001789063
,,,-8.10200011e-007,-0.001773438
,,,-8.10000011e-007,-0.001804688
,,,-8.09800011e-007,-0.001921875
,,,-8.09600011e-007,-0.001992188
,,,-8.09400011e-007, -0.00196875
,,,-8.09200011e-007,-0.001929688
,,,-8.09000011e-007,  -0.0019375
,,,-8.08800011e-007,-0.002007813
,,,-8.08600011e-007,-0.002070313
,,,-8.08400011e-007,-0.001984375
,,,-8.08200011e-007,-0.001960938
,,,-8.08000011e-007,-0.001976563
,,,-8.07800011e-007, -0.00215625
,,,-8.07600011e-007,-0.002257813
,,,-8.07400011e-007,    -0.00225
,,,-8.07200011e-007,-0.002195313
,,,-8.07000011e-007, -0.00221875
,,,-8.06800011e-007, -0.00234375
,,,-8.06600011e-007,-0.002445313
,,,-8.06400011e-007,-0.002382813
,,,-8.06200011e-007,  -0.0023125
,,,-8.06000011e-007,-0.002351563
,,,-8.05800011e-007,-0.002398438
,,,-8.05600011e-007,-0.002367188
,,,-8.05400011e-007,  -0.0023125
,,,-8.05200011e-007,-0.002296875
,,,-8.05000011e-007,-0.002328125
,,,-8.04800011e-007, -0.00246875
,,,-8.04600011e-007,-0.002554688
,,,-8.04400011e-007,-0.002601563
,,,-8.04200011e-007,   -0.002625
,,,-8.04000011e-007,-0.002640625
,,,-8.03800011e-007,-0.002570313
,,,-8.03600011e-007,-0.002445313
,,,-8.03400011e-007, -0.00234375
,,,-8.03200011e-007,-0.002414063
,,,-8.03000011e-007,-0.002507813
,,,-8.02800011e-007, -0.00259375
,,,-8.02600011e-007, -0.00265625
,,,-8.02400011e-007,-0.002695313
,,,-8.02200011e-007,  -0.0026875
,,,-8.02000011e-007,-0.002671875
,,,-8.01800011e-007,-0.002726563
,,,-8.01600011e-007, -0.00278125
,,,-8.01400011e-007,-0.002789063
,,,-8.01200011e-007,-0.002726563
,,,-8.01000011e-007, -0.00271875
,,,-8.00800011e-007,-0.002742188
,,,-8.00600011e-007, -0.00271875
,,,-8.00400011e-007, -0.00271875
,,,-8.00200011e-007, -0.00278125
,,,-8.00000011e-007, -0.00290625
,,,-7.99800011e-007,-0.002953125
,,,-7.99600011e-007,-0.002929688
,,,-7.99400011e-007,-0.002953125
,,,-7.99200011e-007,-0.003015625
,,,-7.99000011e-007,-0.003007813
,,,-7.98800011e-007,-0.002914063
,,,-7.98600011e-007,-0.002851563
,,,-7.98400011e-007,-0.002984375
,,,-7.98200011e-007, -0.00303125
,,,-7.98000011e-007,-0.003054688
,,,-7.97800011e-007,-0.003132813
,,,-7.97600011e-007,-0.003132813
,,,-7.97400011e-007,-0.003132813
,,,-7.97200011e-007,-0.003164063
,,,-7.97000011e-007,-0.003179688
,,,-7.96800011e-007, -0.00309375
,,,-7.96600011e-007, -0.00303125
,,,-7.96400011e-007,-0.003023438
,,,-7.96200011e-007,-0.003109375
,,,-7.96000011e-007,-0.003257813
,,,-7.95800011e-007,-0.003351563
,,,-7.95600011e-007,-0.003390625
,,,-7.95400011e-007,-0.003382813
,,,-7.95200011e-007,-0.003351563
,,,-7.95000011e-007,-0.003390625
,,,-7.94800011e-007,-0.003484375
,,,-7.94600011e-007,-0.003445313
,,,-7.94400011e-007,   -0.003375
,,,-7.94200011e-007,-0.003367188
,,,-7.94000011e-007,-0.003367188
,,,-7.93800011e-007,-0.003414063
,,,-7.93600011e-007,-0.003445313
,,,-7.93400011e-007,  -0.0034375
,,,-7.93200011e-007,  -0.0034375
,,,-7.93000011e-007, -0.00334375
,,,-7.92800011e-007,-0.003390625
,,,-7.92600011e-007,-0.003476563
,,,-7.92400011e-007,  -0.0035625
,,,-7.92200011e-007,-0.003617188
,,,-7.92000011e-007, -0.00359375
,,,-7.91800011e-007,-0.003640625
